{
  "file_generated_by": "FlutterFire CLI",
  "purpose": "FirebaseAppID & ProjectID for this Firebase app in this directory",
  "GOOGLE_APP_ID": "1:7178567643:ios:fc7405cddf8b0a5825f1fe",
  "FIREBASE_PROJECT_ID": "fb-auth-bloc-cli666",
  "GCM_SENDER_ID": "7178567643"
}